06 - Confounding variables and Simpson’s paradox
…
Study carried out by the graduate Division of the University of California, Berkeley in the early 70’s to evaluate whether there was a sex bias in graduate admissions

The data come from six departments. For confidentiality we'll call them A-F.

We have information on whether the applicant was male or female and whether they were admitted or rejected.

First, we will evaluate whether the percentage of males admitted is indeed higher than females, overall. Next, we will calculate the same percentage for each department.

Data frame

ucb_admit <- read_csv("data/ucb_admit.csv")
ucb_admit

## # A tibble: 4,526 x 3
##       Admit Gender  Dept
##       <chr>  <chr> <chr>
##  1 Admitted   Male     A
##  2 Admitted   Male     A
##  3 Admitted   Male     A
##  4 Admitted   Male     A
##  5 Admitted   Male     A
##  6 Admitted   Male     A
##  7 Admitted   Male     A
##  8 Admitted   Male     A
##  9 Admitted   Male     A
## 10 Admitted   Male     A
## # ... with 4,516 more rows
…
