08 - Tidy data + data wrangling
…
Duke University is a community dedicated to scholarship, leadership, and service and to the principles of honesty, fairness, respect, and accountability. Citizens of this community commit to reflect upon and uphold these principles in all academic and non-academic endeavors, and to protect and promote a culture of integrity. Cheating on exams or plagiarism on homework assignments, lying about an illness or absence and other forms of academic dishonesty are a breach of trust with classmates and faculty, violate the Duke Community Standard, and will not be tolerated. Such incidences will result in a 0 grade for all parties involved. Additionally, there may be penalties to your final class grade along with being reported to the Undergraduate Conduct Board.

Tidy data

Tidy data

Each variable forms a column.

Each observation forms a row.

Each type of observational unit forms a table.

Is each of the following a dataset or a summary table?

## # A tibble: 1,314 x 3
##    outcome smoker   age
##     <fctr> <fctr> <int>
##  1   Alive    Yes    23
##  2   Alive    Yes    18
##  3    Dead    Yes    71
##  4   Alive     No    67
##  5   Alive     No    64
##  6   Alive    Yes    38
##  7   Alive    Yes    45
##  8    Dead     No    76
##  9   Alive     No    28
## 10   Alive     No    27
## # ... with 1,304 more rows

## # A tibble: 133 x 4
##      age smoker Alive  Dead
##  * <int> <fctr> <int> <int>
##  1    18     No    10     1
##  2    18    Yes    10    NA
##  3    19     No     8    NA
##  4    19    Yes     6    NA
##  5    20     No    11    NA
##  6    20    Yes     7     1
##  7    21     No     8    NA
##  8    21    Yes     7     1
##  9    22     No     8    NA
## 10    22    Yes     4    NA
## # ... with 123 more rows
…
Filter rows with filter

Select a subset of rows in a data frame.

Easily filter for many conditions at once.

filter

for crashes in Durham County

bike %>%
  filter(County == "Durham")

## # A tibble: 253 x 54
##      FID OBJECTID AmbulanceR BikeAge_Gr Bike_Age Bike_Alc_D       Bike_Dir
##    <int>    <int>      <chr>      <chr>    <int>      <chr>          <chr>
##  1    18       19         No       <NA>        6         No Not Applicable
##  2    53       54        Yes      50-59       52         No   With Traffic
##  3    56       57        Yes      16-19       18         No           <NA>
##  4   209      210         No      16-19       16         No Facing Traffic
##  5   228      229        Yes      40-49       40         No   With Traffic
##  6   620      621        Yes      50-59       55         No   With Traffic
##  7   667      668        Yes      60-69       61         No Not Applicable
##  8   458      459        Yes      60-69       62         No   With Traffic
##  9   576      577         No      40-49       49         No   With Traffic
## 10   618      619         No      20-24       23         No   With Traffic
## # ... with 243 more rows, and 47 more variables: Bike_Injur <chr>,
## #   Bike_Pos <chr>, Bike_Race <chr>, Bike_Sex <chr>, City <chr>,
## #   County <chr>, CrashAlcoh <chr>, CrashDay <chr>, Crash_Date <date>,
## #   Crash_Grp <chr>, Crash_Hour <int>, Crash_Loc <chr>, Crash_Mont <chr>,
## #   Crash_Time <dttm>, Crash_Type <chr>, Crash_Ty_1 <int>,
## #   Crash_Year <int>, Crsh_Sevri <chr>, Developmen <chr>,
## #   DrvrAge_Gr <chr>, Drvr_Age <int>, Drvr_Alc_D <chr>, Drvr_EstSp <chr>,
## #   Drvr_Injur <chr>, Drvr_Race <chr>, Drvr_Sex <chr>, Drvr_VehTy <chr>,
## #   ExcsSpdInd <chr>, Hit_Run <chr>, Light_Cond <chr>, Locality <chr>,
…
transmute to create a new dataset

You'll use this much less often than mutate but when you need it, you need it.

bike %>% 
  transmute(ID = paste(FID, OBJECTID, sep = "-"))

## # A tibble: 5,716 x 1
##       ID
##    <chr>
##  1 18-19
##  2 29-30
##  3 33-34
##  4 35-36
##  5 49-50
##  6 53-54
##  7 56-57
##  8 60-61
##  9 63-64
## 10 66-67
## # ... with 5,706 more rows
…
##                       Hit_Run
## Crash_Loc                No  Yes
##   Intersection         2223  275
##   Intersection-Related  252   42
##   Location                3    7
##   Non-Intersection     2213  462
##   Non-Roadway           205   30

or select to exclude variables

bike %>%
  select(-OBJECTID)

## # A tibble: 5,716 x 53
##      FID AmbulanceR BikeAge_Gr Bike_Age Bike_Alc_D       Bike_Dir
##    <int>      <chr>      <chr>    <int>      <chr>          <chr>
##  1    18         No       <NA>        6         No Not Applicable
##  2    29        Yes      50-59       51         No   With Traffic
##  3    33         No       <NA>       10         No   With Traffic
##  4    35        Yes      16-19       17         No           <NA>
##  5    49         No       <NA>        6         No Facing Traffic
##  6    53        Yes      50-59       52         No   With Traffic
##  7    56        Yes      16-19       18         No           <NA>
##  8    60         No      40-49       40         No Facing Traffic
##  9    63        Yes       6-10        6         No Facing Traffic
## 10    66        Yes       6-10        7         No           <NA>
## # ... with 5,706 more rows, and 47 more variables: Bike_Injur <chr>,
## #   Bike_Pos <chr>, Bike_Race <chr>, Bike_Sex <chr>, City <chr>,
## #   County <chr>, CrashAlcoh <chr>, CrashDay <chr>, Crash_Date <date>,
## #   Crash_Grp <chr>, Crash_Hour <int>, Crash_Loc <chr>, Crash_Mont <chr>,
## #   Crash_Time <dttm>, Crash_Type <chr>, Crash_Ty_1 <int>,
## #   Crash_Year <int>, Crsh_Sevri <chr>, Developmen <chr>,
## #   DrvrAge_Gr <chr>, Drvr_Age <int>, Drvr_Alc_D <chr>, Drvr_EstSp <chr>,
## #   Drvr_Injur <chr>, Drvr_Race <chr>, Drvr_Sex <chr>, Drvr_VehTy <chr>,
## #   ExcsSpdInd <chr>, Hit_Run <chr>, Light_Cond <chr>, Locality <chr>,
## #   Num_Lanes <chr>, Num_Units <int>, Rd_Charact <chr>, Rd_Class <chr>,
## #   Rd_Conditi <chr>, Rd_Config <chr>, Rd_Defects <chr>, Rd_Feature <chr>,
## #   Rd_Surface <chr>, Region <chr>, Rural_Urba <chr>, Speed_Limi <chr>,
## #   Traff_Cntr <chr>, Weather <chr>, Workzone_I <chr>, Location <chr>

or select a range of variables

bike %>%
  select(OBJECTID:Bike_Injur)

## # A tibble: 5,716 x 7
##    OBJECTID AmbulanceR BikeAge_Gr Bike_Age Bike_Alc_D       Bike_Dir
##       <int>      <chr>      <chr>    <int>      <chr>          <chr>
##  1       19         No       <NA>        6         No Not Applicable
##  2       30        Yes      50-59       51         No   With Traffic
##  3       34         No       <NA>       10         No   With Traffic
##  4       36        Yes      16-19       17         No           <NA>
##  5       50         No       <NA>        6         No Facing Traffic
##  6       54        Yes      50-59       52         No   With Traffic
##  7       57        Yes      16-19       18         No           <NA>
##  8       61         No      40-49       40         No Facing Traffic
##  9       64        Yes       6-10        6         No Facing Traffic
## 10       67        Yes       6-10        7         No           <NA>
## # ... with 5,706 more rows, and 1 more variables: Bike_Injur <chr>

pull to extract a column as a vector

bike %>%
  pull(Location) %>%
  head()

## [1] "36.002743, -78.8785"  "35.612984, -77.39265" "35.595676, -77.59074"
## [4] "35.076767, -80.7728"  "35.19999, -80.75713"  "35.966644, -78.96749"

bike %>%
  select(Location)

## # A tibble: 5,716 x 1
##                Location
##                   <chr>
##  1  36.002743, -78.8785
##  2 35.612984, -77.39265
##  3 35.595676, -77.59074
##  4  35.076767, -80.7728
##  5  35.19999, -80.75713
##  6 35.966644, -78.96749
##  7 35.996304, -78.88007
##  8 35.09925, -78.877464
##  9  35.74463, -81.69225
## 10 35.184418, -78.50205
## # ... with 5,706 more rows
…
bike_perc20 <-bike %>%
  sample_frac(0.2, replace = FALSE)
dim(bike_perc20)

## [1] 1143   54

distinct to filter for unique rows

bike %>% 
  select(County, City) %>% 
  distinct() %>% 
  arrange(County, City)

## # A tibble: 360 x 2
##       County               City
##        <chr>              <chr>
##  1  Alamance           Alamance
##  2  Alamance         Burlington
##  3  Alamance       Elon College
##  4  Alamance        Gibsonville
##  5  Alamance             Graham
##  6  Alamance        Green Level
##  7  Alamance             Mebane
##  8  Alamance None - Rural Crash
##  9 Alexander None - Rural Crash
## 10 Alleghany None - Rural Crash
## # ... with 350 more rows
