Recoding variables and transformations
…
---

## Check before you move on!

```r
pp %>%
  count(fig_mention, nfigures)
```

```
## # A tibble: 46 x 3
##     fig_mention nfigures     n
##           <chr>    <int> <int>
##  1   no figures        0  3181
##  2 some figures        2     6
##  3 some figures        3    10
##  4 some figures        4    18
##  5 some figures        5    16
##  6 some figures        6     4
##  7 some figures        7    11
##  8 some figures        8    11
##  9 some figures        9    17
## 10 some figures       10     8
## # ... with 36 more rows
```
…
